…
#> # A tibble: 8 x 11
#>   `entry-number` type   key    timestamp           hash     field datatype
#>            <int> <chr>  <chr>  <dttm>              <chr>    <chr> <chr>   
#> 1              3 system field… 2017-01-10 17:16:07 a303d05… coun… string  
#> 2              4 system field… 2017-01-10 17:16:07 a7a9f22… name  string  
#> 3              5 system field… 2017-01-10 17:16:07 5c4728f… offi… string  
#> 4              6 system field… 2017-01-10 17:16:07 494f6fa… citi… string  
#> 5              7 system field… 2017-01-10 17:16:07 1cff4c6… star… datetime
#> 6              8 system field… 2017-01-10 17:16:07 a557fa9… end-… datetime
#> 7             10 system field… 2017-08-29 11:30:00 f09c439… star… datetime
#> 8             11 system field… 2017-08-29 11:31:00 c5845bf… end-… datetime
#> # ... with 4 more variables: phase <chr>, register <chr>,
#> #   cardinality <chr>, text <chr>
country$data
#> # A tibble: 207 x 11
#>    `entry-number` type  key   timestamp           hash       country name 
#>             <int> <chr> <chr> <dttm>              <chr>      <chr>   <chr>
#>  1             13 user  SU    2016-04-05 13:23:05 e94c4a9ab… SU      USSR 
#>  2             14 user  DE    2016-04-05 13:23:05 e03f97c28… DE      West…
#>  3             15 user  DD    2016-04-05 13:23:05 e1357671d… DD      East…
#>  4             16 user  YU    2016-04-05 13:23:05 a074752a7… YU      Yugo…
#>  5             17 user  CS    2016-04-05 13:23:05 0031f311f… CS      Czec…
#>  6             18 user  GB    2016-04-05 13:23:05 6b1869387… GB      Unit…
#>  7             19 user  AF    2016-04-05 13:23:05 6bf7f01f2… AF      Afgh…
#>  8             20 user  AL    2016-04-05 13:23:05 9d04a7e04… AL      Alba…
#>  9             21 user  DZ    2016-04-05 13:23:05 3548cdf52… DZ      Alge…
#> 10             22 user  AD    2016-04-05 13:23:05 14fcb5099… AD      Ando…
#> # ... with 197 more rows, and 4 more variables: `official-name` <chr>,
#> #   `citizen-names` <chr>, `start-date` <chr>, `end-date` <chr>
…
Resolve links with the rr_resolve_*() family of functions. Because links refer to whole records, whole records are returned in a list-column of data frames.

If a matching record has multiple entries, every entry is returned in a multi-row data frame.

If a linking field is cardinality = 'n', a list of data frames is returned.

rr_resolve_links(registers$`statistical-geography`, registers)$data
#> # A tibble: 175 x 12
#>    `entry-number` type  key   timestamp           hash    `statistical-ge…
#>             <int> <chr> <chr> <dttm>              <chr>   <chr>           
#>  1             11 user  E92   2017-08-04 15:14:55 97d105… E92             
#>  2             12 user  E00   2017-08-04 15:14:55 e57ac6… E00             
#>  3             13 user  E01   2017-08-04 15:14:55 e66020… E01             
#>  4             14 user  E02   2017-08-04 15:14:55 8c1f8d… E02             
#>  5             15 user  E04   2017-08-04 15:14:55 3f07b0… E04             
#>  6             16 user  E05   2017-08-04 15:14:55 f2cb36… E05             
#>  7             17 user  E06   2017-08-04 15:14:55 2c8dbf… E06             
#>  8             18 user  E07   2017-08-04 15:14:55 6cd1d7… E07             
#>  9             19 user  E08   2017-08-04 15:14:55 e40dcb… E08             
#> 10             20 user  E09   2017-08-04 15:14:55 f4ff1a… E09             
#> # ... with 165 more rows, and 6 more variables: name <chr>, area <list>,
#> #   organisation <list>, register <list>, `start-date` <chr>,
#> #   `end-date` <chr>

You can resolve to only the latest entry of each record by creating a registers object with snapshots.

registers_snapshot <- purrr::map(registers, rr_snapshot)
rr_resolve_links(registers$`statistical-geography`, registers_snapshot)$data
#> # A tibble: 175 x 12
#>    `entry-number` type  key   timestamp           hash    `statistical-ge…
#>             <int> <chr> <chr> <dttm>              <chr>   <chr>           
#>  1             11 user  E92   2017-08-04 15:14:55 97d105… E92             
#>  2             12 user  E00   2017-08-04 15:14:55 e57ac6… E00             
#>  3             13 user  E01   2017-08-04 15:14:55 e66020… E01             
#>  4             14 user  E02   2017-08-04 15:14:55 8c1f8d… E02             
#>  5             15 user  E04   2017-08-04 15:14:55 3f07b0… E04             
#>  6             16 user  E05   2017-08-04 15:14:55 f2cb36… E05             
#>  7             17 user  E06   2017-08-04 15:14:55 2c8dbf… E06             
#>  8             18 user  E07   2017-08-04 15:14:55 6cd1d7… E07             
#>  9             19 user  E08   2017-08-04 15:14:55 e40dcb… E08             
#> 10             20 user  E09   2017-08-04 15:14:55 f4ff1a… E09             
#> # ... with 165 more rows, and 6 more variables: name <chr>, area <list>,
#> #   organisation <list>, register <list>, `start-date` <chr>,
#> #   `end-date` <chr>
…
Index registers

You can index registers by any column, using CURIE-like syntax.

country <- registers$country
rr_index(country, "start-date")
#> # A tibble: 50 x 2
#>    .curie             .data              
#>    <chr>              <list>             
#>  1 country:           <tibble [155 × 11]>
#>  2 country:1975-11-11 <tibble [1 × 11]>  
#>  3 country:1981-11-01 <tibble [1 × 11]>  
#>  4 country:1991-09-21 <tibble [1 × 11]>  
#>  5 country:1991-08-30 <tibble [1 × 11]>  
#>  6 country:1991-08-25 <tibble [1 × 11]>  
#>  7 country:1981-09-21 <tibble [1 × 11]>  
#>  8 country:1992-03-03 <tibble [1 × 11]>  
#>  9 country:1984-01-01 <tibble [1 × 11]>  
#> 10 country:1975-07-05 <tibble [1 × 11]>  
#> # ... with 40 more rows
rr_index(country, "end-date")
#> # A tibble: 5 x 2
#>   .curie             .data              
#>   <chr>              <list>             
#> 1 country:1991-12-25 <tibble [1 × 11]>  
#> 2 country:1990-10-02 <tibble [2 × 11]>  
#> 3 country:1992-04-28 <tibble [1 × 11]>  
#> 4 country:1992-12-31 <tibble [1 × 11]>  
#> 5 country:           <tibble [202 × 11]>
rr_index(country)
#> # A tibble: 199 x 2
#>    .curie     .data            
#>    <chr>      <list>           
#>  1 country:SU <tibble [1 × 11]>
#>  2 country:DE <tibble [2 × 11]>
#>  3 country:DD <tibble [1 × 11]>
#>  4 country:YU <tibble [1 × 11]>
#>  5 country:CS <tibble [1 × 11]>
#>  6 country:GB <tibble [1 × 11]>
#>  7 country:AF <tibble [1 × 11]>
#>  8 country:AL <tibble [1 × 11]>
#>  9 country:DZ <tibble [1 × 11]>
#> 10 country:AD <tibble [1 × 11]>
#> # ... with 189 more rows
…
