…
Examples
--------

You can download registers with `rr_records()`. All functions names will use the prefix `rr_*`.

``` r
library(RegistersClientR)
rr_records("country")
#> Downloading register 'country' from the 'beta' phase ...
#>
#> # A tibble: 199 x 12
#>    register phase `index-entry-number` `entry-number`   `entry-timestamp`
#>       <chr> <chr>                <int>          <int>              <dttm>
#>  1  country  beta                  206            206 2017-03-29 14:22:30
#>  2  country  beta                  205            205 2016-11-11 16:25:07
#>  3  country  beta                  204            204 2016-04-05 13:23:05
#>  4  country  beta                  203            203 2016-04-05 13:23:05
#>  5  country  beta                  200            200 2016-04-05 13:23:05
#>  6  country  beta                  199            199 2016-04-05 13:23:05
#>  7  country  beta                  198            198 2016-04-05 13:23:05
#>  8  country  beta                  197            197 2016-04-05 13:23:05
#>  9  country  beta                  196            196 2016-04-05 13:23:05
#> 10  country  beta                  194            194 2016-04-05 13:23:05
#> # ... with 189 more rows, and 7 more variables: key <chr>, country <chr>,
#> #   name <chr>, `official-name` <chr>, `citizen-names` <chr>,
#> #   `start-date` <date>, `end-date` <date>
```

By default, the 'beta' version of the register is downloaded. If you need another version -- usually when the register is still in discovery or alpha, then specify the phase.

``` r
rr_records("country", "alpha")
```

The default page size is 5000, which is the current maximum supported by the API, and is sufficient to download most registers in one page. But to show that multiple pages are handled, you can specify a smaller page size.

``` r
rr_records("country", page_size = 10)
#> Downloading register 'country' from the 'beta' phase ...
#>
#> # A tibble: 199 x 12
#>    register phase `index-entry-number` `entry-number`   `entry-timestamp`
#>       <chr> <chr>                <int>          <int>              <dttm>
#>  1  country  beta                  206            206 2017-03-29 14:22:30
#>  2  country  beta                  205            205 2016-11-11 16:25:07
#>  3  country  beta                  204            204 2016-04-05 13:23:05
#>  4  country  beta                  203            203 2016-04-05 13:23:05
#>  5  country  beta                  200            200 2016-04-05 13:23:05
#>  6  country  beta                  199            199 2016-04-05 13:23:05
#>  7  country  beta                  198            198 2016-04-05 13:23:05
#>  8  country  beta                  197            197 2016-04-05 13:23:05
#>  9  country  beta                  196            196 2016-04-05 13:23:05
#> 10  country  beta                  194            194 2016-04-05 13:23:05
#> # ... with 189 more rows, and 7 more variables: key <chr>, country <chr>,
#> #   name <chr>, `official-name` <chr>, `citizen-names` <chr>,
#> #   `start-date` <date>, `end-date` <date>
```

To run 'silently' without showing the progress bar, you need both `suppressMessages` and to set a `dplyr` option.

``` r
options("dplyr.show_progress" = FALSE)
suppressMessages(rr_records("country", "beta"))
#> # A tibble: 199 x 12
#>    register phase `index-entry-number` `entry-number`   `entry-timestamp`
#>       <chr> <chr>                <int>          <int>              <dttm>
#>  1  country  beta                  206            206 2017-03-29 14:22:30
#>  2  country  beta                  205            205 2016-11-11 16:25:07
#>  3  country  beta                  204            204 2016-04-05 13:23:05
#>  4  country  beta                  203            203 2016-04-05 13:23:05
#>  5  country  beta                  200            200 2016-04-05 13:23:05
#>  6  country  beta                  199            199 2016-04-05 13:23:05
#>  7  country  beta                  198            198 2016-04-05 13:23:05
#>  8  country  beta                  197            197 2016-04-05 13:23:05
#>  9  country  beta                  196            196 2016-04-05 13:23:05
#> 10  country  beta                  194            194 2016-04-05 13:23:05
#> # ... with 189 more rows, and 7 more variables: key <chr>, country <chr>,
#> #   name <chr>, `official-name` <chr>, `citizen-names` <chr>,
#> #   `start-date` <date>, `end-date` <date>
```
…
