Links between registers — rr_links • registr
…
allergen <- rr_register("allergen")
rr_links(allergen)
#> # A tibble: 1 x 4
#>   from     to       type  field         
#>   <chr>    <chr>    <chr> <chr>         
#> 1 allergen allergen key   allergen-group

registers <- rr_registers()
rr_links(registers)
#> # A tibble: 30 x 4
#>    from                                        to            type  field       
#>    <chr>                                       <chr>         <chr> <chr>       
#>  1 field                                       datatype      key   datatype    
#>  2 field                                       register      key   register    
#>  3 government-service                          government-o… key   government-…
#>  4 local-authority-sct                         local-author… key   local-autho…
#>  5 register                                    field         key   fields      
#>  6 statistical-geography-unitary-authority-wls principal-lo… key   principal-l…
#>  7 statistical-geography                       register      key   register    
#>  8 statistical-geography                       country       curie area        
#>  9 statistical-geography                       territory     curie area        
#> 10 statistical-geography                       government-o… curie organisation
#> # ... with 20 more rows
…
