Resolve links in registers — rr_resolve • registr
…
sg <- registers$`statistical-geography`
rr_links(sg)
#> # A tibble: 5 x 4
#>   from                  to                      type  field       
#>   <chr>                 <chr>                   <chr> <chr>       
#> 1 statistical-geography register                key   register    
#> 2 statistical-geography country                 curie area        
#> 3 statistical-geography territory               curie area        
#> 4 statistical-geography government-organisation curie organisation
#> 5 statistical-geography local-authority-eng     curie organisation

rr_resolve_key_field("register", sg, registers)$data
#> # A tibble: 175 x 12
#>    `entry-number` type  key   timestamp           hash   `statistical-ge… name 
#>             <int> <chr> <chr> <dttm>              <chr>  <chr>            <chr>
#>  1             11 user  E92   2017-08-04 15:14:55 97d10… E92              Coun…
#>  2             12 user  E00   2017-08-04 15:14:55 e57ac… E00              Outp…
#>  3             13 user  E01   2017-08-04 15:14:55 e6602… E01              Supe…
#>  4             14 user  E02   2017-08-04 15:14:55 8c1f8… E02              Supe…
#>  5             15 user  E04   2017-08-04 15:14:55 3f07b… E04              Civi…
#>  6             16 user  E05   2017-08-04 15:14:55 f2cb3… E05              Elec…
#>  7             17 user  E06   2017-08-04 15:14:55 2c8db… E06              Unit…
#>  8             18 user  E07   2017-08-04 15:14:55 6cd1d… E07              Non-…
#>  9             19 user  E08   2017-08-04 15:14:55 e40dc… E08              Metr…
#> 10             20 user  E09   2017-08-04 15:14:55 f4ff1… E09              Lond…
#> # ... with 165 more rows, and 5 more variables: area <list>,
#> #   organisation <chr>, register <list>, `start-date` <chr>, `end-date` <chr>
rr_resolve_curie_field("organisation", sg, registers)$data
#> # A tibble: 175 x 12
#>    `entry-number` type  key   timestamp           hash   `statistical-ge… name 
#>             <int> <chr> <chr> <dttm>              <chr>  <chr>            <chr>
#>  1             11 user  E92   2017-08-04 15:14:55 97d10… E92              Coun…
#>  2             12 user  E00   2017-08-04 15:14:55 e57ac… E00              Outp…
#>  3             13 user  E01   2017-08-04 15:14:55 e6602… E01              Supe…
#>  4             14 user  E02   2017-08-04 15:14:55 8c1f8… E02              Supe…
#>  5             15 user  E04   2017-08-04 15:14:55 3f07b… E04              Civi…
#>  6             16 user  E05   2017-08-04 15:14:55 f2cb3… E05              Elec…
#>  7             17 user  E06   2017-08-04 15:14:55 2c8db… E06              Unit…
#>  8             18 user  E07   2017-08-04 15:14:55 6cd1d… E07              Non-…
#>  9             19 user  E08   2017-08-04 15:14:55 e40dc… E08              Metr…
#> 10             20 user  E09   2017-08-04 15:14:55 f4ff1… E09              Lond…
#> # ... with 165 more rows, and 5 more variables: area <list>,
#> #   organisation <list>, register <chr>, `start-date` <chr>, `end-date` <chr>
rr_resolve_curie_field("organisation", sg, targets = targets)$data
#> # A tibble: 175 x 12
#>    `entry-number` type  key   timestamp           hash   `statistical-ge… name 
#>             <int> <chr> <chr> <dttm>              <chr>  <chr>            <chr>
#>  1             11 user  E92   2017-08-04 15:14:55 97d10… E92              Coun…
#>  2             12 user  E00   2017-08-04 15:14:55 e57ac… E00              Outp…
#>  3             13 user  E01   2017-08-04 15:14:55 e6602… E01              Supe…
#>  4             14 user  E02   2017-08-04 15:14:55 8c1f8… E02              Supe…
#>  5             15 user  E04   2017-08-04 15:14:55 3f07b… E04              Civi…
#>  6             16 user  E05   2017-08-04 15:14:55 f2cb3… E05              Elec…
#>  7             17 user  E06   2017-08-04 15:14:55 2c8db… E06              Unit…
#>  8             18 user  E07   2017-08-04 15:14:55 6cd1d… E07              Non-…
#>  9             19 user  E08   2017-08-04 15:14:55 e40dc… E08              Metr…
#> 10             20 user  E09   2017-08-04 15:14:55 f4ff1… E09              Lond…
#> # ... with 165 more rows, and 5 more variables: area <list>,
#> #   organisation <list>, register <chr>, `start-date` <chr>, `end-date` <chr>
rr_resolve_links(sg, registers)$data
#> # A tibble: 175 x 12
#>    `entry-number` type  key   timestamp           hash   `statistical-ge… name 
#>             <int> <chr> <chr> <dttm>              <chr>  <chr>            <chr>
#>  1             11 user  E92   2017-08-04 15:14:55 97d10… E92              Coun…
#>  2             12 user  E00   2017-08-04 15:14:55 e57ac… E00              Outp…
#>  3             13 user  E01   2017-08-04 15:14:55 e6602… E01              Supe…
#>  4             14 user  E02   2017-08-04 15:14:55 8c1f8… E02              Supe…
#>  5             15 user  E04   2017-08-04 15:14:55 3f07b… E04              Civi…
#>  6             16 user  E05   2017-08-04 15:14:55 f2cb3… E05              Elec…
#>  7             17 user  E06   2017-08-04 15:14:55 2c8db… E06              Unit…
#>  8             18 user  E07   2017-08-04 15:14:55 6cd1d… E07              Non-…
#>  9             19 user  E08   2017-08-04 15:14:55 e40dc… E08              Metr…
#> 10             20 user  E09   2017-08-04 15:14:55 f4ff1… E09              Lond…
#> # ... with 165 more rows, and 5 more variables: area <list>,
#> #   organisation <list>, register <list>, `start-date` <chr>, `end-date` <chr>
rr_resolve_links(sg, registers, targets = targets)$data
#> # A tibble: 175 x 12
#>    `entry-number` type  key   timestamp           hash   `statistical-ge… name 
#>             <int> <chr> <chr> <dttm>              <chr>  <chr>            <chr>
#>  1             11 user  E92   2017-08-04 15:14:55 97d10… E92              Coun…
#>  2             12 user  E00   2017-08-04 15:14:55 e57ac… E00              Outp…
#>  3             13 user  E01   2017-08-04 15:14:55 e6602… E01              Supe…
#>  4             14 user  E02   2017-08-04 15:14:55 8c1f8… E02              Supe…
#>  5             15 user  E04   2017-08-04 15:14:55 3f07b… E04              Civi…
#>  6             16 user  E05   2017-08-04 15:14:55 f2cb3… E05              Elec…
#>  7             17 user  E06   2017-08-04 15:14:55 2c8db… E06              Unit…
#>  8             18 user  E07   2017-08-04 15:14:55 6cd1d… E07              Non-…
#>  9             19 user  E08   2017-08-04 15:14:55 e40dc… E08              Metr…
#> 10             20 user  E09   2017-08-04 15:14:55 f4ff1… E09              Lond…
#> # ... with 165 more rows, and 5 more variables: area <list>,
#> #   organisation <list>, register <list>, `start-date` <chr>, `end-date` <chr>
…
